{"filesize": "", "keyword": "", "list": [{"ID": "ed59438f34ae47e794f4c7ee5137c1f7", "EPS_NAME": "海南京润珍珠生物技术股份有限公司", "PRODUCT_SN": "琼妆20160001", "CITY_CODE": "311", "XK_COMPLETE_DATE": {"date": 25, "day": 0, "hours": 0, "minutes": 0, "month": 3, "nanos": 0, "seconds": 0, "time": 1619280000000, "timezoneOffset": -480, "year": 121}, "XK_DATE": "2026-04-25", "QF_MANAGER_NAME": "海南省药品监督管理局", "BUSINESS_LICENSE_NUMBER": "91460000294121210Y", "XC_DATE": "2021-04-25", "NUM_": 1}, {"ID": "5eb10afc74a2462c8e86652ec8d90a48", "EPS_NAME": "无锡邦士立生物科技有限公司", "PRODUCT_SN": "苏妆20160013", "CITY_CODE": "82", "XK_COMPLETE_DATE": {"date": 20, "day": 2, "hours": 0, "minutes": 0, "month": 3, "nanos": 0, "seconds": 0, "time": 1618848000000, "timezoneOffset": -480, "year": 121}, "XK_DATE": "2026-04-20", "QF_MANAGER_NAME": "江苏省药品监督管理局", "BUSINESS_LICENSE_NUMBER": "91320213355032183D", "XC_DATE": "2021-04-20", "NUM_": 2}, {"ID": "02c885ba780a42cebf9e71c32bfcfa5b", "EPS_NAME": "广东嘉丹婷日用品有限公司", "PRODUCT_SN": "粤妆20210094", "CITY_CODE": null, "XK_COMPLETE_DATE": {"date": 2, "day": 5, "hours": 0, "minutes": 0, "month": 3, "nanos": 0, "seconds": 0, "time": 1617292800000, "timezoneOffset": -480, "year": 121}, "XK_DATE": "2026-04-01", "QF_MANAGER_NAME": "广东省药品监督管理局", "BUSINESS_LICENSE_NUMBER": "91441200056766179R", "XC_DATE": "2021-04-02", "NUM_": 3}, {"ID": "527f837c820b46cb8110a0aead19f06f", "EPS_NAME": "广东柏芝翎新材料科技有限公司", "PRODUCT_SN": "粤妆20210093", "CITY_CODE": null, "XK_COMPLETE_DATE": {"date": 2, "day": 5, "hours": 0, "minutes": 0, "month": 3, "nanos": 0, "seconds": 0, "time": 1617292800000, "timezoneOffset": -480, "year": 121}, "XK_DATE": "2026-04-01", "QF_MANAGER_NAME": "广东省药品监督管理局", "BUSINESS_LICENSE_NUMBER": "91445321MA53545T61", "XC_DATE": "2021-04-02", "NUM_": 4}, {"ID": "12931a93c8ad455796a5d143f9aa765f", "EPS_NAME": "广东韩朵生物科技有限公司", "PRODUCT_SN": "粤妆20210092", "CITY_CODE": null, "XK_COMPLETE_DATE": {"date": 2, "day": 5, "hours": 0, "minutes": 0, "month": 3, "nanos": 0, "seconds": 0, "time": 1617292800000, "timezoneOffset": -480, "year": 121}, "XK_DATE": "2026-04-01", "QF_MANAGER_NAME": "广东省药品监督管理局", "BUSINESS_LICENSE_NUMBER": "91441802MA55MX0B00", "XC_DATE": "2021-04-02", "NUM_": 5}, {"ID": "b67d99429fd04ca19b265d37d0dcb9f9", "EPS_NAME": "惠州市尚天然化妆品有限公司", "PRODUCT_SN": "粤妆20160703", "CITY_CODE": null, "XK_COMPLETE_DATE": {"date": 2, "day": 5, "hours": 0, "minutes": 0, "month": 3, "nanos": 0, "seconds": 0, "time": 1617292800000, "timezoneOffset": -480, "year": 121}, "XK_DATE": "2026-09-13", "QF_MANAGER_NAME": "广东省药品监督管理局", "BUSINESS_LICENSE_NUMBER": "91441302MA4UJ80D35", "XC_DATE": "2021-04-02", "NUM_": 6}, {"ID": "44e02d3b44af48c9b54d8e5b22d78bc6", "EPS_NAME": "宁波维纳斯化妆品有限公司", "PRODUCT_SN": "浙妆20160214", "CITY_CODE": null, "XK_COMPLETE_DATE": {"date": 1, "day": 4, "hours": 0, "minutes": 0, "month": 3, "nanos": 0, "seconds": 0, "time": 1617206400000, "timezoneOffset": -480, "year": 121}, "XK_DATE": "2021-12-12", "QF_MANAGER_NAME": "浙江省药品监督管理局", "BUSINESS_LICENSE_NUMBER": "91330282144741078U", "XC_DATE": "2021-04-01", "NUM_": 7}, {"ID": "3f35be82f03f42b1af19f6bf9a98094c", "EPS_NAME": "广东美思康宸药业股份有限公司", "PRODUCT_SN": "粤妆20210091", "CITY_CODE": null, "XK_COMPLETE_DATE": {"date": 1, "day": 4, "hours": 0, "minutes": 0, "month": 3, "nanos": 0, "seconds": 0, "time": 1617206400000, "timezoneOffset": -480, "year": 121}, "XK_DATE": "2026-03-31", "QF_MANAGER_NAME": "广东省药品监督管理局", "BUSINESS_LICENSE_NUMBER": "91441300MA54WWUQ5U", "XC_DATE": "2021-04-01", "NUM_": 8}, {"ID": "b130562c8d1e44a291d6d9cb1b3656f6", "EPS_NAME": "广东雅倩化妆品有限公司", "PRODUCT_SN": "粤妆20160401", "CITY_CODE": null, "XK_COMPLETE_DATE": {"date": 1, "day": 4, "hours": 0, "minutes": 0, "month": 3, "nanos": 0, "seconds": 0, "time": 1617206400000, "timezoneOffset": -480, "year": 121}, "XK_DATE": "2026-03-31", "QF_MANAGER_NAME": "广东省药品监督管理局", "BUSINESS_LICENSE_NUMBER": "914405146175741864", "XC_DATE": "2021-04-01", "NUM_": 9}, {"ID": "346514fae18f4155abfadc612d10675d", "EPS_NAME": "乳源南岭好山好水化妆品有限公司", "PRODUCT_SN": "粤妆20160333", "CITY_CODE": null, "XK_COMPLETE_DATE": {"date": 1, "day": 4, "hours": 0, "minutes": 0, "month": 3, "nanos": 0, "seconds": 0, "time": 1617206400000, "timezoneOffset": -480, "year": 121}, "XK_DATE": "2026-03-31", "QF_MANAGER_NAME": "广东省药品监督管理局", "BUSINESS_LICENSE_NUMBER": "91440232050683129M", "XC_DATE": "2021-04-01", "NUM_": 10}, {"ID": "b3b7962384384ae69c2ded55932297e8", "EPS_NAME": "中英阿诺康（宁夏）生物科技有限公司", "PRODUCT_SN": "宁妆20210001", "CITY_CODE": "299", "XK_COMPLETE_DATE": {"date": 1, "day": 4, "hours": 0, "minutes": 0, "month": 3, "nanos": 0, "seconds": 0, "time": 1617206400000, "timezoneOffset": -480, "year": 121}, "XK_DATE": "2026-03-31", "QF_MANAGER_NAME": "宁夏回族自治区药品监督管理局", "BUSINESS_LICENSE_NUMBER": "9164000039644116XC", "XC_DATE": "2021-04-01", "NUM_": 11}, {"ID": "a828142c190342b1982161d34d5fa84c", "EPS_NAME": "佛山天韵化妆品科技有限公司", "PRODUCT_SN": "粤妆20190012", "CITY_CODE": null, "XK_COMPLETE_DATE": {"date": 31, "day": 3, "hours": 0, "minutes": 0, "month": 2, "nanos": 0, "seconds": 0, "time": 1617120000000, "timezoneOffset": -480, "year": 121}, "XK_DATE": "2024-01-15", "QF_MANAGER_NAME": "广东省药品监督管理局", "BUSINESS_LICENSE_NUMBER": "91440607MA51QWB49A", "XC_DATE": "2021-03-31", "NUM_": 12}, {"ID": "17d68cb1bf564174a6753ad50591178a", "EPS_NAME": "广东澳珍药业有限公司", "PRODUCT_SN": "粤妆20170297", "CITY_CODE": null, "XK_COMPLETE_DATE": {"date": 31, "day": 3, "hours": 0, "minutes": 0, "month": 2, "nanos": 0, "seconds": 0, "time": 1617120000000, "timezoneOffset": -480, "year": 121}, "XK_DATE": "2022-02-22", "QF_MANAGER_NAME": "广东省药品监督管理局", "BUSINESS_LICENSE_NUMBER": "9144130076157659XT", "XC_DATE": "2021-03-31", "NUM_": 13}, {"ID": "86ef648c155e400ebaee666c41ac6660", "EPS_NAME": "深圳市诗黛美化妆品有限公司", "PRODUCT_SN": "粤妆20160496", "CITY_CODE": null, "XK_COMPLETE_DATE": {"date": 31, "day": 3, "hours": 0, "minutes": 0, "month": 2, "nanos": 0, "seconds": 0, "time": 1617120000000, "timezoneOffset": -480, "year": 121}, "XK_DATE": "2026-03-30", "QF_MANAGER_NAME": "广东省药品监督管理局", "BUSINESS_LICENSE_NUMBER": "91440300781382872K", "XC_DATE": "2021-03-31", "NUM_": 14}, {"ID": "53e4c43bfe7941b9bdb231c120a8a85c", "EPS_NAME": "广东爱齐美日化有限公司", "PRODUCT_SN": "粤妆20160296", "CITY_CODE": null, "XK_COMPLETE_DATE": {"date": 31, "day": 3, "hours": 0, "minutes": 0, "month": 2, "nanos": 0, "seconds": 0, "time": 1617120000000, "timezoneOffset": -480, "year": 121}, "XK_DATE": "2026-03-30", "QF_MANAGER_NAME": "广东省药品监督管理局", "BUSINESS_LICENSE_NUMBER": "91440604324891428R", "XC_DATE": "2021-03-31", "NUM_": 15}], "orderBy": "createDate", "orderType": "desc", "pageCount": 373, "pageNumber": 1, "pageSize": 15, "property": "", "totalCount": 5584}